Data Visualization - Mini-Project 1
…
The next visualization Im interested in is the match performances for each individual country. This task is rather challenging based on the given format of the data. The team can be on both the home side or the away side during a match so we created two separate data frames and joined them before plotting. After some manipulations, we were able to get a data frame containing all the different countries in the dataset, and their wins and loss match count on both the home side and away side.

#number of games plays by each county
games_played_home <- my_data %>% 
  select(`Home Team Name`, `Home Team Goals`, `Away Team Goals`) %>% 
  group_by(`Home Team Name`) %>% 
  summarise(games=n(), wins=sum(`Home Team Goals` > `Away Team Goals`)) %>% 
  rename(teamname=`Home Team Name`, home_games=games, home_wins=wins) %>% 
  print()

## # A tibble: 79 x 3
##    teamname  home_games home_wins
##    <chr>          <int>     <int>
##  1 Algeria            6         1
##  2 Angola             1         0
##  3 Argentina         54        41
##  4 Australia          6         2
##  5 Austria           13        10
##  6 Belgium           18        11
##  7 Bolivia            1         0
##  8 Brazil            82        59
##  9 Bulgaria           7         2
## 10 Cameroon          11         3
## #  with 69 more rows

games_played_away <- my_data %>% 
  select(`Away Team Name`, `Home Team Goals`, `Away Team Goals`) %>% 
  group_by(`Away Team Name`) %>% 
  summarise(games=n(), wins=sum(`Home Team Goals` > `Away Team Goals`)) %>% 
  rename(teamname=`Away Team Name`, away_games = games, away_wins = wins) %>% 
  print()

## # A tibble: 84 x 3
##    teamname  away_games away_wins
##    <chr>          <int>     <int>
##  1 Algeria            8         5
##  2 Angola             2         0
##  3 Argentina         27        14
##  4 Australia          7         5
##  5 Austria           16        11
##  6 Belgium           25        15
##  7 Bolivia            5         4
##  8 Brazil            26        10
##  9 Bulgaria          19        13
## 10 Cameroon          12         6
## #  with 74 more rows
…
##  7 Mexico                 22         32
##  8 Uruguay                21         31
##  9 Hungary                 4         28
## 10 Germany                21         27
## 11 Spain                  32         27
## 12 Sweden                 19         27
## 13 Belgium                17         26
## 14 Netherlands            29         25
## 15 Yugoslavia             12         25
## 16 Czechoslovakia          7         23
## 17 Chile                  12         22
## 18 Switzerland            12         22
## 19 Austria                 8         21
## 20 Soviet Union           10         21
## # A tibble: 40 x 3
##    teamname   result     score
##    <chr>      <chr>      <int>
##  1 Brazil     total_loss    39
##  2 Argentina  total_loss    26
##  3 Italy      total_loss    33
##  4 Germany FR total_loss    22
##  5 England    total_loss    26
##  6 France     total_loss    28
##  7 Mexico     total_loss    22
##  8 Uruguay    total_loss    21
##  9 Hungary    total_loss     4
## 10 Germany    total_loss    21
## #  with 30 more rows
…
##  7 Mexico                 8        24
##  8 Uruguay               16        15
##  9 Hungary               15        13
## 10 Germany               24         3
## 11 Spain                 16        11
## 12 Sweden                15        12
## 13 Belgium               11        15
## 14 Netherlands           18         7
## 15 Yugoslavia            13        12
## 16 Czechoslovakia         9        14
## 17 Chile                  9        13
## 18 Switzerland            7        15
## 19 Austria               10        11
## 20 Soviet Union          13         8
## # A tibble: 40 x 3
##    teamname   location_win score
##    <chr>      <chr>        <int>
##  1 Brazil     home_wins       59
##  2 Argentina  home_wins       41
##  3 Italy      home_wins       38
##  4 Germany FR home_wins       29
##  5 England    home_wins       22
##  6 France     home_wins       19
##  7 Mexico     home_wins        8
##  8 Uruguay    home_wins       16
##  9 Hungary    home_wins       15
## 10 Germany    home_wins       24
## #  with 30 more rows
…
total_gap <- rbind(away_team_wins, home_team_wins)

total_gap 

#remove countries with only 1 game

countries_count <- total_gap %>% 
  group_by(teamname) %>% 
  count(sort=T) %>% 
  filter(n>5) %>% 
  print()

## # A tibble: 28 x 2
## # Groups:   teamname [28]
##    teamname        n
##    <chr>       <int>
##  1 Brazil         71
##  2 Italy          45
##  3 Argentina      44
##  4 Germany FR     36
##  5 Germany        34
##  6 France         29
##  7 Netherlands    29
##  8 Spain          29
##  9 England        26
## 10 Uruguay        20
## #  with 18 more rows
…
#how does score at half time affects the result
#which teams tends to have better first half performance over second half
#need to remove those that have 0 scores total games
#based on winning games

#winning team's performance on the first half of the game

game_scores <- my_data %>% 
  mutate(home_score_ratio= (`Half-time Home Goals` / `Home Team Goals`)*100, away_score_ratio =(`Half-time Away Goals` / `Away Team Goals`)*100) %>% 
  replace(is.na(.), 0) %>% 
  select(`Home Team Name`, `Away Team Name`, home_score_ratio, away_score_ratio, `Home Team Goals`, `Away Team Goals`) %>% 
  print()

## # A tibble: 4,572 x 6
##    `Home Team Name` `Away Team Name` home_score_ratio away_score_ratio
##    <chr>            <chr>                       <dbl>            <dbl>
##  1 France           Mexico                       75                  0
##  2 USA              Belgium                      66.7                0
##  3 Yugoslavia       Brazil                      100                  0
##  4 Romania          Peru                         33.3                0
##  5 Argentina        France                        0                  0
##  6 Chile            Mexico                       33.3                0
##  7 Yugoslavia       Bolivia                       0                  0
##  8 USA              Paraguay                     66.7                0
##  9 Uruguay          Peru                          0                  0
## 10 Chile            France                        0                  0
## #  with 4,562 more rows, and 2 more variables: `Home Team Goals` <dbl>,
## #   `Away Team Goals` <dbl>
…
